This one is not like the others: Applicability Domain methods
…
]

---

# Scoring new samples

.pull-left[

```r
score(jaccard_sim, binary_unk)
```

```
## # A tibble: 80 x 2
##    similarity similarity_pctl
##         <dbl>           <dbl>
##  1     0.128           0.0519
##  2     0.157           0.559 
##  3     0.112           0.0487
##  4     0.0949          0.0453
##  5     0.139           0.553 
##  6     0.142           0.554 
##  7     0.239           0.675 
##  8     0.0783          0.0420
##  9     0.172           0.565 
## 10     0.0829          0.0429
## # … with 70 more rows
```
…
